<?xml version="1.0" encoding="utf-8"?>
<!-- Generator: Adobe Illustrator 16.0.3, SVG Export Plug-In . SVG Version: 6.00 Build 0)  -->
<!DOCTYPE svg PUBLIC "-//W3C//DTD SVG 1.1//EN" "http://www.w3.org/Graphics/SVG/1.1/DTD/svg11.dtd">
<svg version="1.1" id="Layer_1" xmlns="http://www.w3.org/2000/svg" xmlns:xlink="http://www.w3.org/1999/xlink" x="0px" y="0px"
	 width="570.539px" height="500px" viewBox="-276.27 -242 570.539 500" enable-background="new -276.27 -242 570.539 500"
	 xml:space="preserve">
<path fill="#280000" d="M-167.301-242c-33.487,0-61.752,22.33-70.725,52.889h-38.245v41.623h38.245
	c8.973,30.559,37.237,52.889,70.725,52.889c33.472,0,61.737-22.33,70.709-52.889h390.86v-41.623h-390.86
	C-105.564-219.67-133.829-242-167.301-242z M-169.517-200.316c0.729-0.046,1.472-0.077,2.216-0.077
	c11.87,0,22.237,6.446,27.785,16.054c2.728,4.711,4.292,10.181,4.292,16.039c0,5.842-1.565,11.328-4.292,16.039
	c-5.547,9.608-15.915,16.054-27.785,16.054c-11.885,0-22.252-6.446-27.8-16.054c-2.728-4.71-4.292-10.196-4.292-16.039
	c0-5.857,1.565-11.328,4.292-16.039C-189.894-193.342-180.457-199.572-169.517-200.316z M150.062-65.685
	c-33.503,0-61.768,22.315-70.725,52.889H-276.27v41.607H79.337c8.957,30.59,37.222,52.904,70.725,52.904
	c33.472,0,61.736-22.314,70.693-52.904h73.514v-41.607h-73.514C211.798-43.37,183.533-65.685,150.062-65.685z M122.261-8.023
	c5.548-9.608,15.931-16.054,27.801-16.054s22.222,6.446,27.8,16.054c2.728,4.711,4.277,10.181,4.277,16.039
	c0,5.842-1.55,11.328-4.277,16.054c-5.578,9.576-15.93,16.054-27.8,16.054s-22.253-6.478-27.801-16.054
	c-2.727-4.727-4.276-10.212-4.276-16.054C117.984,2.157,119.534-3.313,122.261-8.023z M-61.523,110.631
	c-33.472,0-61.737,22.314-70.725,52.904H-276.27v41.592h144.022C-123.26,235.685-94.996,258-61.523,258
	c33.487,0,61.737-22.315,70.725-52.873h285.067v-41.592H9.201C0.213,132.945-28.036,110.631-61.523,110.631z M-89.324,168.276
	c5.563-9.576,15.93-16.022,27.8-16.022c0.744,0,1.487,0,2.216,0.062c10.94,0.744,20.377,6.942,25.584,15.961
	c2.728,4.742,4.292,10.196,4.292,16.023c0,5.889-1.565,11.343-4.292,16.054c-5.547,9.607-15.93,16.055-27.8,16.055
	s-22.237-6.447-27.8-16.055c-2.728-4.711-4.292-10.165-4.292-16.054C-93.616,178.473-92.051,173.019-89.324,168.276z"/>
</svg>
