<?xml version="1.0" encoding="utf-8"?>
<!-- Generator: Adobe Illustrator 24.1.2, SVG Export Plug-In . SVG Version: 6.00 Build 0)  -->
<svg version="1.1" id="Слой_1" xmlns="http://www.w3.org/2000/svg" xmlns:xlink="http://www.w3.org/1999/xlink" x="0px" y="0px"
	 width="434px" height="500px" viewBox="0 0 434 500" enable-background="new 0 0 434 500" xml:space="preserve">
<path fill-rule="evenodd" clip-rule="evenodd" fill="#F33939" d="M367,423.3c12.9,0,23.3-10.4,23.3-23.3s-10.4-23.3-23.3-23.3
	s-23.3,10.4-23.3,23.3S354.1,423.3,367,423.3z M367,466.7c36.8,0,66.7-29.8,66.7-66.7s-29.8-66.7-66.7-66.7
	c-36.8,0-66.7,29.8-66.7,66.7S330.2,466.7,367,466.7z"/>
<path fill-rule="evenodd" clip-rule="evenodd" fill="#F33939" d="M130.1,88.3c-9,26.2-33.8,45-63.1,45c-36.8,0-66.7-29.8-66.7-66.7
	S30.2,0,67,0c29.2,0,54.1,18.8,63.1,45h153.6c58,0,105,47,105,105s-47,105-105,105H117c-34.1,0-61.7,27.6-61.7,61.7
	c0,34.1,27.6,61.7,61.7,61.7h64.4l-29.7-29.7l30.6-30.6l82,82l-82,82l-30.6-30.6l29.7-29.7H117c-58,0-105-47-105-105
	c0-58,47-105,105-105h166.7c34.1,0,61.7-27.6,61.7-61.7s-27.6-61.7-61.7-61.7H130.1z M90.3,66.7C90.3,79.6,79.9,90,67,90
	S43.7,79.6,43.7,66.7S54.1,43.3,67,43.3S90.3,53.8,90.3,66.7z"/>
</svg>
