<?xml version="1.0" encoding="utf-8"?>
<!-- Generator: Adobe Illustrator 24.1.2, SVG Export Plug-In . SVG Version: 6.00 Build 0)  -->
<svg version="1.1" id="Слой_1" xmlns="http://www.w3.org/2000/svg" xmlns:xlink="http://www.w3.org/1999/xlink" x="0px" y="0px"
	 width="500px" height="500px" viewBox="0 0 500 500" enable-background="new 0 0 500 500" xml:space="preserve">
<path fill-rule="evenodd" clip-rule="evenodd" d="M95.7,373c-1.7-43.8-2.2-94.1,1.2-141c3.3-46.8,10.5-90.5,24.2-120.9
	c9.1-20.1,29.1-37.6,51-54.5c5.5-4.2,11-8.4,16.6-12.6c16.9-12.7,33.8-25.3,47.2-38.9c6.8-6.9,18.7-6.9,25.7-0.1
	c12,11.7,26.3,22.1,40.8,32.6c6.8,5,13.7,10,20.4,15.2c20.9,16.1,40.1,34.1,50.1,58.4c38.5,82.8,35.3,170.2,29.1,259.5
	c-2.8,40-19.6,72.4-46,94.7c-26.4,22.3-62.4,34.5-103.4,34.5C170.7,500,98.6,447.8,95.7,373z M252.5,432c27.6-1,47.6-7.2,61.1-18.7
	c13.5-11.5,20.9-28.6,22.6-52.3c2.3-31.6,5.2-76.6,2.8-119.8c-1.2-21.6-3.6-42.8-8.1-61.5c-4.5-18.8-10.9-35.1-19.9-47.1
	c-10-13.3-21.4-25.6-32.5-35.4c-10.8-9.5-21.2-16.4-29.7-19.5c-7.2,3.3-21.1,10.1-34.8,19.4c-14.3,9.7-28,21.9-33.8,35
	c-9.4,21.3-15,59.8-17.8,102.6c-2.8,42.7-2.8,89.2-1.3,126.4C162.6,401.8,197.8,434,252.5,432z"/>
</svg>
