<?xml version="1.0" encoding="utf-8"?>
<!-- Generator: Adobe Illustrator 24.1.2, SVG Export Plug-In . SVG Version: 6.00 Build 0)  -->
<svg version="1.1" id="Слой_1" xmlns="http://www.w3.org/2000/svg" xmlns:xlink="http://www.w3.org/1999/xlink" x="0px" y="0px"
	 width="500px" height="500px" viewBox="0 0 500 500" enable-background="new 0 0 500 500" xml:space="preserve">
<path fill-rule="evenodd" clip-rule="evenodd" d="M358,23C317.3-14.7,249.8-4.4,207.3,41.6c-20.6,22.3-33.2,50.6-34.7,79
	c-1.6,28.4,8.2,54.8,27.8,72.8c46.9,43.4,110.4,65.5,179.1,62.8l29.7-1.1l1.8-0.2l0,0c13-1.6,23.7-13.2,24.5-26.3
	c0-0.8,0.1-1.6,0-2.3l-1.1-29.4C431.8,128,404.9,66.4,358,23z M236,154.8c-19.9-18.5-19.5-54.9,5.4-81.8
	c24.9-26.8,61.2-30,81.1-11.6c38.3,35.4,60.6,86,62.8,143.2l0.1,1.7l-1.7,0.1C326.4,208.6,274.3,190.2,236,154.8z"/>
<path fill-rule="evenodd" clip-rule="evenodd" d="M89.3,453.7c26.9,48.5,94.2,59.9,149,29.5c26.6-14.7,47.4-37.7,57.7-64.2
	c10.4-26.5,9.3-54.6-3.6-77.8c-31-55.9-84.4-96.7-150.5-115.7l-28.6-8.2l-1.8-0.3l0,0c-12.8-2.5-26.7,5.1-31.5,17.3
	c-0.3,0.7-0.5,1.5-0.8,2.2L71,264.7C52.1,330.9,58.4,397.8,89.3,453.7z M246.4,366.7c13.2,23.8,1.4,58.3-30.7,76
	c-32,17.7-67.5,9.4-80.6-14.4c-25.3-45.6-30.7-100.7-14.9-155.7l0.5-1.6l1.6,0.5C177.4,287.3,221.2,321.1,246.4,366.7z"/>
</svg>
