<svg width="44" height="45" viewBox="0 0 44 45" fill="none" xmlns="http://www.w3.org/2000/svg">
<path fill-rule="evenodd" clip-rule="evenodd" d="M22 44.5C34.1503 44.5 44 34.6503 44 22.5C44 10.3497 34.1503 0.5 22 0.5C9.84974 0.5 0 10.3497 0 22.5C0 34.6503 9.84974 44.5 22 44.5ZM34.7566 30.0456C34.786 30.0948 34.8176 30.1563 34.8515 30.2304C34.8854 30.3043 34.9195 30.435 34.954 30.622C34.9877 30.8094 34.9856 30.9771 34.9466 31.1249C34.9075 31.2725 34.7862 31.4082 34.5821 31.5314C34.3784 31.6544 34.0911 31.7164 33.722 31.7164L29.9901 31.7754C29.7565 31.8246 29.4844 31.8 29.1739 31.7015C28.8629 31.603 28.6102 31.4945 28.4155 31.3762L28.1241 31.1988C27.8326 30.9915 27.4925 30.6764 27.1036 30.2525C26.7149 29.8288 26.3821 29.4472 26.1051 29.107C25.8279 28.7671 25.5316 28.4811 25.2157 28.2495C24.8995 28.0177 24.625 27.9413 24.3918 28.0202C24.3626 28.0303 24.324 28.0471 24.2756 28.0719C24.2268 28.0965 24.1438 28.1681 24.0273 28.2864C23.911 28.4043 23.8066 28.5498 23.714 28.7222C23.6214 28.8948 23.5385 29.1511 23.4659 29.491C23.3932 29.8309 23.3614 30.2128 23.3713 30.6365C23.3713 30.7842 23.3544 30.9199 23.3203 31.0431C23.2866 31.166 23.25 31.2574 23.211 31.3163L23.153 31.3904C22.9779 31.5775 22.7203 31.6859 22.3803 31.7157H20.7038C20.0137 31.7548 19.3042 31.6737 18.5753 31.4715C17.8463 31.2695 17.2074 31.0083 16.6582 30.6883C16.1091 30.3677 15.6086 30.0425 15.1566 29.7122C14.7046 29.3821 14.3621 29.0988 14.1288 28.8622L13.7643 28.5075C13.6671 28.4089 13.5335 28.2613 13.3633 28.064C13.1933 27.8669 12.8459 27.4185 12.321 26.7187C11.7961 26.0191 11.281 25.2749 10.7757 24.4863C10.2704 23.6984 9.67506 22.6584 8.98991 21.3673C8.30477 20.0762 7.67064 18.7359 7.08752 17.3461C7.02916 17.1885 7 17.0555 7 16.947C7 16.8386 7.01471 16.7597 7.04386 16.7104L7.10222 16.6218C7.24806 16.4345 7.52501 16.3407 7.9332 16.3407L11.9277 16.3113C12.0444 16.331 12.156 16.3629 12.263 16.4073C12.3698 16.4519 12.4477 16.4936 12.4962 16.533L12.5692 16.5775C12.7246 16.6859 12.8413 16.8435 12.919 17.0504C13.1133 17.5432 13.3368 18.0534 13.5896 18.5807C13.8423 19.1079 14.0415 19.5096 14.1873 19.7855L14.4205 20.2143C14.7023 20.8057 14.9745 21.3181 15.2368 21.7517C15.4993 22.1853 15.735 22.5229 15.944 22.7644C16.153 23.006 16.3546 23.1956 16.5489 23.3336C16.7432 23.4717 16.9084 23.5407 17.0445 23.5407C17.1805 23.5407 17.3119 23.5157 17.4382 23.4666C17.4575 23.4569 17.4818 23.4321 17.511 23.3927C17.5402 23.3534 17.5985 23.245 17.686 23.0676C17.7734 22.8902 17.839 22.6586 17.8829 22.3728C17.9267 22.087 17.9727 21.6879 18.0214 21.1753C18.0699 20.6629 18.0699 20.0469 18.0214 19.3273C18.0021 18.9333 17.9582 18.5735 17.8902 18.2484C17.8222 17.9232 17.7541 17.6964 17.686 17.5683L17.5985 17.3907C17.3555 17.0557 16.9426 16.8437 16.3594 16.7551C16.233 16.7357 16.2574 16.6173 16.4324 16.4004C16.5976 16.2133 16.7822 16.0653 16.9863 15.9571C17.5014 15.7008 18.6629 15.5824 20.4706 15.6021C21.2677 15.612 21.9237 15.676 22.4388 15.7942C22.6329 15.8436 22.796 15.9101 22.9272 15.9939C23.0581 16.0778 23.1579 16.1959 23.226 16.3487C23.2938 16.5016 23.3452 16.6593 23.3787 16.8218C23.4126 16.9845 23.4298 17.2086 23.4298 17.4945C23.4298 17.7803 23.4252 18.0514 23.4153 18.3077C23.4053 18.5637 23.3934 18.9111 23.3787 19.3497C23.3643 19.7883 23.3571 20.1948 23.3571 20.5694C23.3571 20.6778 23.3525 20.8846 23.3424 21.1903C23.3326 21.4958 23.3305 21.7326 23.335 21.9C23.3399 22.0676 23.3571 22.2669 23.3861 22.4987C23.4152 22.7303 23.471 22.9226 23.5538 23.0753C23.6363 23.2281 23.7456 23.3488 23.8816 23.4375C23.9597 23.4572 24.0422 23.4769 24.1297 23.4967C24.2171 23.5166 24.3433 23.4623 24.5086 23.334C24.6741 23.2058 24.8584 23.036 25.0627 22.824C25.2666 22.6123 25.5193 22.282 25.8205 21.8337C26.1221 21.3852 26.4524 20.8556 26.812 20.2444C27.3953 19.2195 27.915 18.1107 28.3721 16.9182C28.4109 16.8197 28.4595 16.7332 28.5175 16.6595C28.5759 16.5856 28.6294 16.5338 28.678 16.5044L28.736 16.4599L28.809 16.4229L28.9986 16.3784C29.1252 16.3488 29.2223 16.3465 29.2903 16.371L33.4888 16.3416C33.8679 16.2923 34.1788 16.3045 34.4221 16.3784C34.6648 16.4525 34.8154 16.5337 34.8738 16.6224L34.9606 16.7698C35.1843 17.4007 34.4553 18.8493 32.7738 21.1162C32.5406 21.4316 32.2249 21.8503 31.8263 22.3727C31.0684 23.3585 30.6307 24.0036 30.5142 24.3091C30.3493 24.7135 30.4169 25.1126 30.7186 25.5068C30.8836 25.7138 31.2774 26.118 31.8993 26.7192H31.914L31.9287 26.7341L31.9432 26.7486L31.9722 26.7782C33.3425 28.0693 34.2708 29.1583 34.7566 30.0456Z" fill="#A51A1B"/>
</svg>
