<?xml version="1.0" encoding="utf-8"?>
<!-- Generator: Adobe Illustrator 24.1.2, SVG Export Plug-In . SVG Version: 6.00 Build 0)  -->
<svg version="1.1" id="Слой_1" xmlns="http://www.w3.org/2000/svg" xmlns:xlink="http://www.w3.org/1999/xlink" x="0px" y="0px"
	 width="500px" height="500px" viewBox="0 0 500 500" enable-background="new 0 0 500 500" xml:space="preserve">
<path fill-rule="evenodd" clip-rule="evenodd" d="M338,11.6L338,11.6c-24.8-9.6-53.4-7.4-76.1,5.9c-3.9,2.3-7.6,4.9-11.1,7.7
	c-2,1.6-5.1,1.8-7.2,0.3c-1.9-1.3-3.8-2.5-5.8-3.7C215.3,8.6,186.7,6.5,162,16l0,0l-1.8,0.7l-0.2,0.1C85.4,48.3,30.4,108,10.8,179.8
	c-1.1,3.3-2.1,6.7-2.8,10.1c-12.3,47.3-10.4,96.6,5.5,143c1.1,4.2,2.3,8.4,3.7,12.5c0.5,1.4,1.2,2.6,2.2,3.6
	c24,61.3,74.7,111.3,140.4,138.8l0.1,0l0.1,0c30.2,11.9,65.2,6.5,89.1-13.1c2-1.6,5.1-1.8,7.2-0.3c23.7,16.3,55.8,20,83.7,9.1l0.1,0
	l0.1,0c65.7-27.5,116.4-77.4,140.4-138.8c1-1,1.7-2.2,2.2-3.6c1.5-4.3,2.8-8.7,3.9-13.2c15.6-46,17.5-94.9,5.5-141.8
	c-0.8-3.7-1.7-7.3-3-10.9C469.5,103.5,414.5,43.8,340,12.4l-0.2-0.1L338,11.6z M377,206.9c-2.3-7.2-3.3-15.7-4.4-25.2l0-0.1l0,0
	c-0.6-5.1-1.2-10.3-2-15.2c-0.9-16.3-6.3-32-15.6-45.8l-0.2-0.2l-8-10.4c-6.1-8-17.2-10.4-26.1-5.7l-6.3,3.3
	c-13.3,7.1-13.4,23.6-7.1,33.3c0.9,1.4,1.5,2.6,1.8,3.5c21.8,64.6,21.7,146.9,0.1,206.7c-0.1,0.4-0.3,0.8-0.6,1.4
	c-4.8,9.5-4.3,24.6,8.3,31.3l7.2,3.8c9.3,5,20.9,2.1,26.8-6.6l4-6l0,0c11.2-16.6,16.6-35.8,15.6-55.2c0.1-0.4,0.1-0.9,0.2-1.3
	l1.2-18.4l0-0.2c0.1-8.7,5.8-17.3,15.8-21.7l0.1-0.1l0.1-0.1c3.6-1.7,10.9-2.9,19.5-2.5c8.6,0.3,15.5,2.1,18.5,4
	c5.9,3.8,9.1,7.3,10.7,11.9c1.7,4.8,2,12.3-1.2,25.1c-16.9,53.3-59,97.9-116.1,122.3c-9.7,3.7-20.8,2.9-29.5-2.1
	c-8.7-5-13.4-13.2-13.4-21.4V80.7c0-8.4,4.8-16.7,13.6-21.8l0.1,0l0.1,0c8-4.8,18.4-5.7,27.4-2.2c60.7,25.9,105.9,75.1,121,132.2
	l0.1,0.3l0.3,1c0.2,0.8,0.4,1.6,0.7,2.4l0,0c0.3,1.1,0.6,2.2,1,3.4c1.5,5.9,0.8,12-2.1,17.6c-5.3,5.4-13.1,8.7-21.7,8.9
	c-1,0-2,0.1-2.9,0.2c-3.2,0.4-9.2,0.4-15.4-0.1c-6.2-0.5-10.7-1.4-12.6-2.1C382,218,379.1,213.7,377,206.9z M129.5,170.8
	c-0.8,4.9-1.4,10.1-2,15.2l0,0.1c-1.1,9.5-2.1,18.1-4.4,25.3c-2.1,6.8-5,11.1-9,13.5c-1.9,0.7-6.4,1.6-12.6,2.1
	c-6.2,0.5-12.2,0.5-15.4,0.1c-0.9-0.1-1.9-0.2-2.9-0.2c-8.6-0.2-16.4-3.5-21.7-8.9c-2.9-5.6-3.6-11.7-2.1-17.6l0,0
	c0.5-2.1,1-4,1.6-5.8l0.3-1l0.1-0.3C76.6,136.2,121.9,87,182.6,61c9-3.5,19.4-2.6,27.3,2.2l0.1,0.1c8.8,5.1,13.6,13.4,13.6,21.7
	v334.6c0,8.2-4.7,16.4-13.4,21.4c-8.7,5-19.9,5.9-29.5,2.1c-57-24.3-99.1-68.9-116-122.1c-3.2-12.8-2.9-20.3-1.2-25.2
	c1.6-4.6,4.8-8.1,10.7-11.9c3-1.9,9.9-3.7,18.5-4c8.5-0.3,15.9,0.8,19.4,2.5l0.1,0l0.1,0c10.3,4.6,15.9,13.5,15.9,22.4l0,0.3
	l1.1,17.6c0,0.4,0.1,0.9,0.2,1.3c-1,19.4,4.5,38.6,15.6,55.2l6.4,9.5c5.9,8.7,17.5,11.6,26.8,6.6l7.3-3.9
	c12.2-6.5,13.9-21.8,7.8-31.8c-1-1.7-2.1-3.5-3-5.3c-0.8-1.6-3.4-8.8-6.3-20.9c-2.8-11.9-5.8-28-7.7-47c-3.6-38-2.4-87.3,14.4-137.9
	c0,0,0-0.1,0.1-0.3c0.1-0.2,0.2-0.5,0.4-0.8c0.4-0.7,0.9-1.5,1.5-2.5c6.5-9.9,4.5-24.7-7.4-31l-7.9-4.2c-9.3-5-20.9-2.1-26.8,6.6
	l-5.7,8.4l0,0C135.8,138.8,130.4,154.5,129.5,170.8z"/>
</svg>
