<svg width="767" height="1250" viewBox="0 0 767 1250" fill="none" xmlns="http://www.w3.org/2000/svg">
<mask id="mask0" mask-type="alpha" maskUnits="userSpaceOnUse" x="-1" y="0" width="768" height="1250">
<rect x="-1" width="768" height="1250" fill="#C4C4C4"/>
</mask>
<g mask="url(#mask0)">
<g opacity="0.8" filter="url(#filter0_d)">
<path d="M-160 1216C-368 1216 -479 1180 -611 1120V74H1313V1146C871 1318 714.673 1132.24 486 1120C187 1104 39.0076 1216 -160 1216Z" fill="#FFC800"/>
</g>
<path d="M-205 1216C-413 1216 -496 1181.29 -628 1100.65V73H1296V1135.59C854 1366.77 789 1044 521 1044C227 1044 -5.99243 1216 -205 1216Z" fill="url(#paint0_linear)" fill-opacity="0.5" stroke="white" stroke-opacity="0.5"/>
</g>
<defs>
<filter id="filter0_d" x="-649" y="48" width="2000" height="1220.65" filterUnits="userSpaceOnUse" color-interpolation-filters="sRGB">
<feFlood flood-opacity="0" result="BackgroundImageFix"/>
<feColorMatrix in="SourceAlpha" type="matrix" values="0 0 0 0 0 0 0 0 0 0 0 0 0 0 0 0 0 0 127 0"/>
<feMorphology radius="2" operator="dilate" in="SourceAlpha" result="effect1_dropShadow"/>
<feOffset dy="12"/>
<feGaussianBlur stdDeviation="18"/>
<feColorMatrix type="matrix" values="0 0 0 0 0.195833 0 0 0 0 0.4935 0 0 0 0 0.5875 0 0 0 0.12 0"/>
<feBlend mode="normal" in2="BackgroundImageFix" result="effect1_dropShadow"/>
<feBlend mode="normal" in="SourceGraphic" in2="effect1_dropShadow" result="shape"/>
</filter>
<linearGradient id="paint0_linear" x1="334" y1="701.997" x2="334" y2="1218.99" gradientUnits="userSpaceOnUse">
<stop stop-color="#FFC800"/>
<stop offset="1" stop-color="#FFEA9F" stop-opacity="0.3"/>
</linearGradient>
</defs>
</svg>
