<svg width="500" height="176" viewBox="0 0 500 176" fill="none" xmlns="http://www.w3.org/2000/svg">
<g opacity="0.25">
<path d="M63.4927 60.8399L37.3949 77.5187L27.9104 75.4298C26.4132 75.1001 24.8311 75.1 23.2794 75.4452L22.2494 75.7288C20.884 76.0304 19.8509 77.0632 19.5506 78.4267C19.2503 79.7902 19.7539 81.1615 20.8188 81.9717L21.727 82.7354C22.9448 83.664 24.3783 84.3281 25.8778 84.6583L35.3623 86.7472L52.0355 112.839C52.8846 114.168 54.199 115.086 55.7402 115.426L58.4442 116.021C58.8664 116.114 59.3048 115.969 59.5868 115.644C59.8711 115.319 59.9569 114.864 59.8045 114.458L50.6604 89.6472C54.1983 90.2014 57.1762 90.5525 60.8005 90.9782L64.515 91.4117L68.0724 100.664C68.2176 101.037 68.5348 101.31 68.9224 101.396L71.2295 101.904C71.5778 101.981 71.9451 101.895 72.2243 101.671C72.5062 101.445 72.668 101.106 72.6666 100.75L72.6442 90.1204L77.13 80.484C77.1668 80.405 77.1943 80.3239 77.2126 80.2409C77.27 79.9802 77.2382 79.7071 77.1178 79.4629C76.9562 79.1419 76.6591 78.9096 76.3107 78.8328L74.0037 78.3247C73.6161 78.2393 73.2112 78.3534 72.9273 78.6319L65.8189 85.5354L62.2544 84.3657C58.7912 83.2304 55.9437 82.2985 52.5002 81.3151L71.2168 62.6405C71.5263 62.3336 71.6369 61.8863 71.517 61.4753C71.3981 61.0596 71.0613 60.7435 70.6391 60.6506L67.9351 60.055C66.3941 59.7154 64.8159 59.9943 63.4927 60.8399Z" fill="#C2BBBB"/>
</g>
<path d="M499.992 175C393.992 173.5 213.273 138.451 278.774 11.4555C310.683 -50.4131 439.773 186.456 86.2734 93.4557" stroke="#C2BBBB" stroke-dasharray="4 4"/>
</svg>
